Flux Data Summary
…
## Loading required package: survival

## # A tibble: 525 x 7
##    field plot  chamber date                compound  flux soiltemp
##    <fct> <fct> <chr>   <dttm>              <fct>    <dbl>    <dbl>
##  1 1     0     1       2017-10-03 00:00:00 n2o      -0.22     14.2
##  2 1     0     2       2017-10-03 00:00:00 n2o      -1.07     14.2
##  3 1     0     3       2017-10-03 00:00:00 n2o      -2.45     14.2
##  4 1     25    1       2017-10-03 00:00:00 n2o       1.28     14.2
##  5 1     25    2       2017-10-03 00:00:00 n2o      -0.14     14.2
##  6 1     25    3       2017-10-03 00:00:00 n2o      -0.37     14.2
##  7 1     50    1       2017-10-03 00:00:00 n2o      -2.51     14.2
##  8 1     50    2       2017-10-03 00:00:00 n2o      -2.25     14.2
##  9 1     50    3       2017-10-03 00:00:00 n2o      -3.98     14.2
## 10 1     75    1       2017-10-03 00:00:00 n2o       0.27     14.2
## # ... with 515 more rows

## # A tibble: 525 x 7
##    field plot  chamber date                compound  flux soiltemp
##    <fct> <fct> <chr>   <dttm>              <fct>    <dbl>    <dbl>
##  1 2     0     1       2017-10-03 00:00:00 n2o         NA       NA
##  2 2     0     2       2017-10-03 00:00:00 n2o         NA       NA
##  3 2     0     3       2017-10-03 00:00:00 n2o         NA       NA
##  4 2     25    1       2017-10-03 00:00:00 n2o         NA       NA
##  5 2     25    2       2017-10-03 00:00:00 n2o         NA       NA
##  6 2     25    3       2017-10-03 00:00:00 n2o         NA       NA
##  7 2     50    1       2017-10-03 00:00:00 n2o         NA       NA
##  8 2     50    2       2017-10-03 00:00:00 n2o         NA       NA
##  9 2     50    3       2017-10-03 00:00:00 n2o         NA       NA
## 10 2     75    1       2017-10-03 00:00:00 n2o         NA       NA
## # ... with 515 more rows

## # A tibble: 525 x 7
##    field plot  chamber date                compound  flux soiltemp
##    <fct> <fct> <chr>   <dttm>              <fct>    <dbl>    <dbl>
##  1 3     0     1       2017-10-03 00:00:00 n2o      -2.88     17.6
##  2 3     0     2       2017-10-03 00:00:00 n2o       0.82     17.6
##  3 3     0     3       2017-10-03 00:00:00 n2o       0.69     17.6
##  4 3     25    1       2017-10-03 00:00:00 n2o       0.01     17.6
##  5 3     25    2       2017-10-03 00:00:00 n2o      -0.91     17.6
##  6 3     25    3       2017-10-03 00:00:00 n2o       2.22     17.6
##  7 3     50    1       2017-10-03 00:00:00 n2o      -0.41     17.6
##  8 3     50    2       2017-10-03 00:00:00 n2o      -2.84     17.6
##  9 3     50    3       2017-10-03 00:00:00 n2o       0.43     17.6
## 10 3     75    1       2017-10-03 00:00:00 n2o       1.36     17.6
## # ... with 515 more rows

## # A tibble: 525 x 7
##    field plot  chamber date                compound  flux soiltemp
##    <fct> <fct> <chr>   <dttm>              <fct>    <dbl>    <dbl>
##  1 4     0     1       2017-10-03 00:00:00 n2o      -0.2      17.6
##  2 4     0     2       2017-10-03 00:00:00 n2o      -2.51     17.6
##  3 4     0     3       2017-10-03 00:00:00 n2o      -1.36     17.6
##  4 4     25    1       2017-10-03 00:00:00 n2o      -0.71     17.6
##  5 4     25    2       2017-10-03 00:00:00 n2o      -1.05     17.6
##  6 4     25    3       2017-10-03 00:00:00 n2o       0.77     17.6
##  7 4     50    1       2017-10-03 00:00:00 n2o      -0.52     17.6
##  8 4     50    2       2017-10-03 00:00:00 n2o       0.39     17.6
##  9 4     50    3       2017-10-03 00:00:00 n2o      -0.03     17.6
## 10 4     75    1       2017-10-03 00:00:00 n2o      -0.01     17.6
## # ... with 515 more rows
…
